Rule,Head Coverage,Std Confidence,PCA Confidence,Positive Examples,Body size,PCA Body size,Functional variable,Std. Lower Bound,PCA Lower Bound,PCA Conf estimation
?e  <http://purl.org/spar/cito/cites>  ?a  ?e  <https://makg.org/property/appearsInConferenceSeries>  ?b   => ?a  <https://makg.org/property/appearsInConferenceSeries>  ?b,0.282416045,0.309797902,0.363336334,1211,3909,3333,?a,0.0,0.0,0.0
?a  <http://purl.org/spar/cito/cites>  ?f  ?f  <https://makg.org/property/appearsInConferenceSeries>  ?b   => ?a  <https://makg.org/property/appearsInConferenceSeries>  ?b,0.328358209,0.326530612,0.381365114,1408,4312,3692,?a,0.0,0.0,0.0
?b  <http://lsdis.cs.uga.edu/projects/semdis/opus#coauthor>  ?a   => ?a  <http://lsdis.cs.uga.edu/projects/semdis/opus#coauthor>  ?b,0.989122553,0.989122553,0.989840348,24552,24822,24804,?a,0.0,0.0,0.0
?f  <http://purl.org/spar/cito/cites>  ?b  ?a  <http://purl.org/spar/cito/cites>  ?f   => ?a  <http://purl.org/spar/cito/cites>  ?b,0.196559198,0.129012181,0.129012181,1451,11247,11247,?a,0.0,0.0,0.0
?a  <http://lsdis.cs.uga.edu/projects/semdis/opus#coauthor>  ?f  ?f  <http://www.w3.org/ns/org#memberOf>  ?b   => ?a  <http://www.w3.org/ns/org#memberOf>  ?b,0.672484925,0.305661738,0.407460821,4238,13865,10401,?a,0.0,0.0,0.0
?e  <http://lsdis.cs.uga.edu/projects/semdis/opus#coauthor>  ?a  ?e  <http://www.w3.org/ns/org#memberOf>  ?b   => ?a  <http://www.w3.org/ns/org#memberOf>  ?b,0.672167566,0.3061136,0.407935285,4236,13838,10384,?a,0.0,0.0,0.0
?b  <http://lsdis.cs.uga.edu/projects/semdis/opus#coauthor>  ?f  ?a  <http://purl.org/dc/terms/creator>  ?f   => ?a  <http://purl.org/dc/terms/creator>  ?b,0.918350783,0.217671502,0.218812245,11315,51982,51711,?b,0.0,0.0,0.0
?a  <http://purl.org/spar/cito/cites>  ?f  ?f  <http://purl.org/spar/fabio/hasDiscipline>  ?b   => ?a  <http://purl.org/spar/fabio/hasDiscipline>  ?b,0.1430018,0.121139916,0.12311716,2542,20984,20647,?a,0.0,0.0,0.0
?f  <http://lsdis.cs.uga.edu/projects/semdis/opus#coauthor>  ?b  ?a  <http://purl.org/dc/terms/creator>  ?f   => ?a  <http://purl.org/dc/terms/creator>  ?b,0.918269621,0.218118024,0.219259317,11314,51871,51601,?b,0.0,0.0,0.0
?e  <http://purl.org/spar/cito/cites>  ?a  ?e  <http://purl.org/spar/fabio/hasDiscipline>  ?b   => ?a  <http://purl.org/spar/fabio/hasDiscipline>  ?b,0.120049505,0.102670195,0.104597588,2134,20785,20402,?a,0.0,0.0,0.0
?a  <http://purl.org/spar/cito/cites>  ?f  ?f  <http://www.w3.org/1999/02/22-rdf-syntax-ns#type>  ?b   => ?a  <http://www.w3.org/1999/02/22-rdf-syntax-ns#type>  ?b,0.171678279,1,1,2809,2809,2809,?a,0.0,0.0,0.0
?e  <http://purl.org/spar/cito/cites>  ?a  ?e  <http://www.w3.org/1999/02/22-rdf-syntax-ns#type>  ?b   => ?a  <http://www.w3.org/1999/02/22-rdf-syntax-ns#type>  ?b,0.149126024,1,1,2440,2440,2440,?a,0.0,0.0,0.0
?f  <http://lsdis.cs.uga.edu/projects/semdis/opus#coauthor>  ?b  ?a  <http://lsdis.cs.uga.edu/projects/semdis/opus#coauthor>  ?f   => ?a  <http://lsdis.cs.uga.edu/projects/semdis/opus#coauthor>  ?b,0.86858432,0.233854698,0.233854698,21560,92194,92194,?a,0.0,0.0,0.0
?e  <http://lsdis.cs.uga.edu/projects/semdis/opus#coauthor>  ?a  ?e  <http://www.w3.org/1999/02/22-rdf-syntax-ns#type>  ?b   => ?a  <http://www.w3.org/1999/02/22-rdf-syntax-ns#type>  ?b,0.466141059,1,1,7627,7627,7627,?a,0.0,0.0,0.0
?a  <http://lsdis.cs.uga.edu/projects/semdis/opus#coauthor>  ?f  ?f  <http://www.w3.org/1999/02/22-rdf-syntax-ns#type>  ?b   => ?a  <http://www.w3.org/1999/02/22-rdf-syntax-ns#type>  ?b,0.466446645,1,1,7632,7632,7632,?a,0.0,0.0,0.0
?a  <http://lsdis.cs.uga.edu/projects/semdis/opus#coauthor>  ?f  ?b  <http://lsdis.cs.uga.edu/projects/semdis/opus#coauthor>  ?f   => ?a  <http://lsdis.cs.uga.edu/projects/semdis/opus#coauthor>  ?b,0.868745468,0.233508035,0.233508035,21564,92348,92348,?a,0.0,0.0,0.0
?e  <http://purl.org/dc/terms/creator>  ?a  ?e  <http://purl.org/dc/terms/creator>  ?b   => ?a  <http://lsdis.cs.uga.edu/projects/semdis/opus#coauthor>  ?b,0.975143018,0.74451724,0.756122704,24205,32511,32012,?a,0.0,0.0,0.0
?e  <http://lsdis.cs.uga.edu/projects/semdis/opus#coauthor>  ?a  ?e  <http://lsdis.cs.uga.edu/projects/semdis/opus#coauthor>  ?b   => ?a  <http://lsdis.cs.uga.edu/projects/semdis/opus#coauthor>  ?b,0.868423173,0.234088071,0.23418471,21556,92085,92047,?a,0.0,0.0,0.0
?f  <http://lsdis.cs.uga.edu/projects/semdis/opus#coauthor>  ?a  ?b  <http://lsdis.cs.uga.edu/projects/semdis/opus#coauthor>  ?f   => ?a  <http://lsdis.cs.uga.edu/projects/semdis/opus#coauthor>  ?b,0.868745468,0.233898084,0.233948836,21564,92194,92174,?a,0.0,0.0,0.0